{
    "current_page": 2,
    "data": [
        {
            "id": "9d25ad17-03c7-4b9a-a3d8-2a163fd39b19",
            "sku": "khcb-50",
            "upc": null,
            "ean": null,
            "jan": null,
            "isbn": null,
            "mpn": null,
            "image": "/data/product/hoa-dam-tang/ke-hoa-chia-buon-50.jpg",
            "brand_id": "",
            "supplier_id": "",
            "price": "4200000.00",
            "cost": "900000.00",
            "stock": 99,
            "sold": 1,
            "minimum": 0,
            "weight_class": "kg",
            "weight": "5.00",
            "length_class": "m",
            "length": "0.00",
            "width": "1.00",
            "height": "1.80",
            "kind": 0,
            "property": "physical",
            "tax_id": "0",
            "status": 1,
            "approve": 1,
            "sort": 0,
            "view": 9,
            "alias": "ke-hoa-chia-buon-50",
            "date_lastview": "2024-10-26 23:35:07",
            "date_available": "2024-09-30",
            "created_at": "2024-10-02T06:43:53.000000Z",
            "updated_at": "2024-10-29T07:45:20.000000Z",
            "images": [],
            "descriptions": [
                {
                    "product_id": "9d25ad17-03c7-4b9a-a3d8-2a163fd39b19",
                    "lang": "en",
                    "name": "Ke Hoa Chia Buon 50",
                    "keyword": null,
                    "description": null,
                    "content": "<p>Nếu bất kỳ loại hoa, giỏ hoa v&agrave; c&acirc;y n&agrave;o trong h&igrave;nh hết h&agrave;ng, ch&uacute;ng t&ocirc;i sẽ thay thế bằng những loại hoa c&oacute; c&ugrave;ng h&igrave;nh dạng, kiểu d&aacute;ng v&agrave; m&agrave;u sắc để đảm bảo hoa tươi v&agrave; chất lượng cao.<br />\r\nNếu bạn chọn mẫu hoa (như hoa hồng) v&agrave; những nguy&ecirc;n liệu n&agrave;y đ&atilde; hết h&agrave;ng, ch&uacute;ng t&ocirc;i sẽ li&ecirc;n hệ với bạn để thảo luận về phương &aacute;n thay thế ph&ugrave; hợp.</p>"
                },
                {
                    "product_id": "9d25ad17-03c7-4b9a-a3d8-2a163fd39b19",
                    "lang": "vi",
                    "name": "Kệ Hoa Chia Buồn 50",
                    "keyword": null,
                    "description": null,
                    "content": "<p>Nếu bất kỳ loại hoa, giỏ hoa v&agrave; c&acirc;y n&agrave;o trong h&igrave;nh hết h&agrave;ng, ch&uacute;ng t&ocirc;i sẽ thay thế bằng những loại hoa c&oacute; c&ugrave;ng h&igrave;nh dạng, kiểu d&aacute;ng v&agrave; m&agrave;u sắc để đảm bảo hoa tươi v&agrave; chất lượng cao.<br />\r\nNếu bạn chọn mẫu hoa (như hoa hồng) v&agrave; những nguy&ecirc;n liệu n&agrave;y đ&atilde; hết h&agrave;ng, ch&uacute;ng t&ocirc;i sẽ li&ecirc;n hệ với bạn để thảo luận về phương &aacute;n thay thế ph&ugrave; hợp.</p>"
                }
            ],
            "promotion_price": null,
            "attributes": []
        },
        {
            "id": "9d25ad20-991a-4b23-9a1e-5ae9c56eb019",
            "sku": "khcb-49",
            "upc": null,
            "ean": null,
            "jan": null,
            "isbn": null,
            "mpn": null,
            "image": "/data/product/hoa-dam-tang/ke-hoa-chia-buon-49.jpg",
            "brand_id": "",
            "supplier_id": "",
            "price": "1350000.00",
            "cost": "900000.00",
            "stock": 99,
            "sold": 1,
            "minimum": 0,
            "weight_class": "kg",
            "weight": "5.00",
            "length_class": "m",
            "length": "0.00",
            "width": "1.00",
            "height": "1.80",
            "kind": 0,
            "property": "physical",
            "tax_id": "0",
            "status": 1,
            "approve": 1,
            "sort": 0,
            "view": 11,
            "alias": "ke-hoa-chia-buon-49",
            "date_lastview": "2024-11-04 04:29:16",
            "date_available": "2024-09-30",
            "created_at": "2024-10-02T06:43:59.000000Z",
            "updated_at": "2024-11-03T21:29:16.000000Z",
            "images": [],
            "descriptions": [
                {
                    "product_id": "9d25ad20-991a-4b23-9a1e-5ae9c56eb019",
                    "lang": "en",
                    "name": "Ke Hoa Chia Buon 49",
                    "keyword": null,
                    "description": null,
                    "content": "<p>Nếu bất kỳ loại hoa, giỏ hoa v&agrave; c&acirc;y n&agrave;o trong h&igrave;nh hết h&agrave;ng, ch&uacute;ng t&ocirc;i sẽ thay thế bằng những loại hoa c&oacute; c&ugrave;ng h&igrave;nh dạng, kiểu d&aacute;ng v&agrave; m&agrave;u sắc để đảm bảo hoa tươi v&agrave; chất lượng cao.<br />\r\nNếu bạn chọn mẫu hoa (như hoa hồng) v&agrave; những nguy&ecirc;n liệu n&agrave;y đ&atilde; hết h&agrave;ng, ch&uacute;ng t&ocirc;i sẽ li&ecirc;n hệ với bạn để thảo luận về phương &aacute;n thay thế ph&ugrave; hợp.</p>"
                },
                {
                    "product_id": "9d25ad20-991a-4b23-9a1e-5ae9c56eb019",
                    "lang": "vi",
                    "name": "Kệ Hoa Chia Buồn 49",
                    "keyword": null,
                    "description": null,
                    "content": "<p>Nếu bất kỳ loại hoa, giỏ hoa v&agrave; c&acirc;y n&agrave;o trong h&igrave;nh hết h&agrave;ng, ch&uacute;ng t&ocirc;i sẽ thay thế bằng những loại hoa c&oacute; c&ugrave;ng h&igrave;nh dạng, kiểu d&aacute;ng v&agrave; m&agrave;u sắc để đảm bảo hoa tươi v&agrave; chất lượng cao.<br />\r\nNếu bạn chọn mẫu hoa (như hoa hồng) v&agrave; những nguy&ecirc;n liệu n&agrave;y đ&atilde; hết h&agrave;ng, ch&uacute;ng t&ocirc;i sẽ li&ecirc;n hệ với bạn để thảo luận về phương &aacute;n thay thế ph&ugrave; hợp.</p>"
                }
            ],
            "promotion_price": null,
            "attributes": []
        },
        {
            "id": "9d25ad2a-bf2e-4dd5-a6a7-c2b89c32af69",
            "sku": "khcb-48",
            "upc": null,
            "ean": null,
            "jan": null,
            "isbn": null,
            "mpn": null,
            "image": "/data/product/hoa-dam-tang/ke-hoa-chia-buon-48.jpg",
            "brand_id": "",
            "supplier_id": "",
            "price": "1250000.00",
            "cost": "900000.00",
            "stock": 99,
            "sold": 1,
            "minimum": 0,
            "weight_class": "kg",
            "weight": "5.00",
            "length_class": "m",
            "length": "0.00",
            "width": "1.00",
            "height": "1.80",
            "kind": 0,
            "property": "physical",
            "tax_id": "0",
            "status": 1,
            "approve": 1,
            "sort": 0,
            "view": 9,
            "alias": "ke-hoa-chia-buon-48",
            "date_lastview": "2024-10-26 23:35:02",
            "date_available": "2024-09-30",
            "created_at": "2024-10-02T06:44:06.000000Z",
            "updated_at": "2024-10-29T07:45:58.000000Z",
            "images": [],
            "descriptions": [
                {
                    "product_id": "9d25ad2a-bf2e-4dd5-a6a7-c2b89c32af69",
                    "lang": "en",
                    "name": "Ke Hoa Chia Buon 48",
                    "keyword": null,
                    "description": null,
                    "content": "<p>Nếu bất kỳ loại hoa, giỏ hoa v&agrave; c&acirc;y n&agrave;o trong h&igrave;nh hết h&agrave;ng, ch&uacute;ng t&ocirc;i sẽ thay thế bằng những loại hoa c&oacute; c&ugrave;ng h&igrave;nh dạng, kiểu d&aacute;ng v&agrave; m&agrave;u sắc để đảm bảo hoa tươi v&agrave; chất lượng cao.<br />\r\nNếu bạn chọn mẫu hoa (như hoa hồng) v&agrave; những nguy&ecirc;n liệu n&agrave;y đ&atilde; hết h&agrave;ng, ch&uacute;ng t&ocirc;i sẽ li&ecirc;n hệ với bạn để thảo luận về phương &aacute;n thay thế ph&ugrave; hợp.</p>"
                },
                {
                    "product_id": "9d25ad2a-bf2e-4dd5-a6a7-c2b89c32af69",
                    "lang": "vi",
                    "name": "Kệ Hoa Chia Buồn 48",
                    "keyword": null,
                    "description": null,
                    "content": "<p>Nếu bất kỳ loại hoa, giỏ hoa v&agrave; c&acirc;y n&agrave;o trong h&igrave;nh hết h&agrave;ng, ch&uacute;ng t&ocirc;i sẽ thay thế bằng những loại hoa c&oacute; c&ugrave;ng h&igrave;nh dạng, kiểu d&aacute;ng v&agrave; m&agrave;u sắc để đảm bảo hoa tươi v&agrave; chất lượng cao.<br />\r\nNếu bạn chọn mẫu hoa (như hoa hồng) v&agrave; những nguy&ecirc;n liệu n&agrave;y đ&atilde; hết h&agrave;ng, ch&uacute;ng t&ocirc;i sẽ li&ecirc;n hệ với bạn để thảo luận về phương &aacute;n thay thế ph&ugrave; hợp.</p>"
                }
            ],
            "promotion_price": null,
            "attributes": []
        },
        {
            "id": "9d25ad36-d64a-4fe2-8607-ced90eb6a6c0",
            "sku": "khcb-46",
            "upc": null,
            "ean": null,
            "jan": null,
            "isbn": null,
            "mpn": null,
            "image": "/data/product/hoa-dam-tang/ke-hoa-chia-buon-46.jpg",
            "brand_id": "",
            "supplier_id": "",
            "price": "1650000.00",
            "cost": "900000.00",
            "stock": 99,
            "sold": 1,
            "minimum": 0,
            "weight_class": "kg",
            "weight": "5.00",
            "length_class": "m",
            "length": "0.00",
            "width": "1.00",
            "height": "1.80",
            "kind": 0,
            "property": "physical",
            "tax_id": "0",
            "status": 1,
            "approve": 1,
            "sort": 0,
            "view": 9,
            "alias": "ke-hoa-chia-buon-46",
            "date_lastview": "2024-10-26 23:34:57",
            "date_available": "2024-09-30",
            "created_at": "2024-10-02T06:44:14.000000Z",
            "updated_at": "2024-10-29T07:46:48.000000Z",
            "images": [],
            "descriptions": [
                {
                    "product_id": "9d25ad36-d64a-4fe2-8607-ced90eb6a6c0",
                    "lang": "en",
                    "name": "Ke Hoa Chia Buon 46",
                    "keyword": null,
                    "description": null,
                    "content": "<p>Nếu bất kỳ loại hoa, giỏ hoa v&agrave; c&acirc;y n&agrave;o trong h&igrave;nh hết h&agrave;ng, ch&uacute;ng t&ocirc;i sẽ thay thế bằng những loại hoa c&oacute; c&ugrave;ng h&igrave;nh dạng, kiểu d&aacute;ng v&agrave; m&agrave;u sắc để đảm bảo hoa tươi v&agrave; chất lượng cao.<br />\r\nNếu bạn chọn mẫu hoa (như hoa hồng) v&agrave; những nguy&ecirc;n liệu n&agrave;y đ&atilde; hết h&agrave;ng, ch&uacute;ng t&ocirc;i sẽ li&ecirc;n hệ với bạn để thảo luận về phương &aacute;n thay thế ph&ugrave; hợp.</p>"
                },
                {
                    "product_id": "9d25ad36-d64a-4fe2-8607-ced90eb6a6c0",
                    "lang": "vi",
                    "name": "Kệ Hoa Chia Buồn 46",
                    "keyword": null,
                    "description": null,
                    "content": "<p>Nếu bất kỳ loại hoa, giỏ hoa v&agrave; c&acirc;y n&agrave;o trong h&igrave;nh hết h&agrave;ng, ch&uacute;ng t&ocirc;i sẽ thay thế bằng những loại hoa c&oacute; c&ugrave;ng h&igrave;nh dạng, kiểu d&aacute;ng v&agrave; m&agrave;u sắc để đảm bảo hoa tươi v&agrave; chất lượng cao.<br />\r\nNếu bạn chọn mẫu hoa (như hoa hồng) v&agrave; những nguy&ecirc;n liệu n&agrave;y đ&atilde; hết h&agrave;ng, ch&uacute;ng t&ocirc;i sẽ li&ecirc;n hệ với bạn để thảo luận về phương &aacute;n thay thế ph&ugrave; hợp.</p>"
                }
            ],
            "promotion_price": null,
            "attributes": []
        },
        {
            "id": "9d25ad83-3191-44c3-a346-1fa711fb59e0",
            "sku": "khcb-45",
            "upc": null,
            "ean": null,
            "jan": null,
            "isbn": null,
            "mpn": null,
            "image": "/data/product/hoa-dam-tang/ke-hoa-chia-buon-45.jpg",
            "brand_id": "",
            "supplier_id": "",
            "price": "1650000.00",
            "cost": "900000.00",
            "stock": 99,
            "sold": 1,
            "minimum": 0,
            "weight_class": "kg",
            "weight": "5.00",
            "length_class": "m",
            "length": "0.00",
            "width": "1.00",
            "height": "1.80",
            "kind": 0,
            "property": "physical",
            "tax_id": "0",
            "status": 1,
            "approve": 1,
            "sort": 0,
            "view": 10,
            "alias": "ke-hoa-chia-buon-45",
            "date_lastview": "2024-11-04 03:43:45",
            "date_available": "2024-09-30",
            "created_at": "2024-10-02T06:45:04.000000Z",
            "updated_at": "2024-11-03T20:43:45.000000Z",
            "images": [],
            "descriptions": [
                {
                    "product_id": "9d25ad83-3191-44c3-a346-1fa711fb59e0",
                    "lang": "en",
                    "name": "Ke Hoa Chia Buon 45",
                    "keyword": null,
                    "description": null,
                    "content": "<p>Nếu bất kỳ loại hoa, giỏ hoa v&agrave; c&acirc;y n&agrave;o trong h&igrave;nh hết h&agrave;ng, ch&uacute;ng t&ocirc;i sẽ thay thế bằng những loại hoa c&oacute; c&ugrave;ng h&igrave;nh dạng, kiểu d&aacute;ng v&agrave; m&agrave;u sắc để đảm bảo hoa tươi v&agrave; chất lượng cao.<br />\r\nNếu bạn chọn mẫu hoa (như hoa hồng) v&agrave; những nguy&ecirc;n liệu n&agrave;y đ&atilde; hết h&agrave;ng, ch&uacute;ng t&ocirc;i sẽ li&ecirc;n hệ với bạn để thảo luận về phương &aacute;n thay thế ph&ugrave; hợp.</p>"
                },
                {
                    "product_id": "9d25ad83-3191-44c3-a346-1fa711fb59e0",
                    "lang": "vi",
                    "name": "Kệ Hoa Chia Buồn 45",
                    "keyword": null,
                    "description": null,
                    "content": "<p>Nếu bất kỳ loại hoa, giỏ hoa v&agrave; c&acirc;y n&agrave;o trong h&igrave;nh hết h&agrave;ng, ch&uacute;ng t&ocirc;i sẽ thay thế bằng những loại hoa c&oacute; c&ugrave;ng h&igrave;nh dạng, kiểu d&aacute;ng v&agrave; m&agrave;u sắc để đảm bảo hoa tươi v&agrave; chất lượng cao.<br />\r\nNếu bạn chọn mẫu hoa (như hoa hồng) v&agrave; những nguy&ecirc;n liệu n&agrave;y đ&atilde; hết h&agrave;ng, ch&uacute;ng t&ocirc;i sẽ li&ecirc;n hệ với bạn để thảo luận về phương &aacute;n thay thế ph&ugrave; hợp.</p>"
                }
            ],
            "promotion_price": null,
            "attributes": []
        },
        {
            "id": "9d25ad86-84f5-4d72-894a-601a0bf75d8e",
            "sku": "khcb-44",
            "upc": null,
            "ean": null,
            "jan": null,
            "isbn": null,
            "mpn": null,
            "image": "/data/product/hoa-dam-tang/ke-hoa-chia-buon-44.jpg",
            "brand_id": "",
            "supplier_id": "",
            "price": "2100000.00",
            "cost": "900000.00",
            "stock": 99,
            "sold": 1,
            "minimum": 0,
            "weight_class": "kg",
            "weight": "5.00",
            "length_class": "m",
            "length": "0.00",
            "width": "1.00",
            "height": "1.80",
            "kind": 0,
            "property": "physical",
            "tax_id": "0",
            "status": 1,
            "approve": 1,
            "sort": 0,
            "view": 10,
            "alias": "ke-hoa-chia-buon-44",
            "date_lastview": "2024-11-04 17:22:47",
            "date_available": "2024-09-30",
            "created_at": "2024-10-02T06:45:06.000000Z",
            "updated_at": "2024-11-04T10:22:47.000000Z",
            "images": [],
            "descriptions": [
                {
                    "product_id": "9d25ad86-84f5-4d72-894a-601a0bf75d8e",
                    "lang": "en",
                    "name": "Ke Hoa Chia Buon 44",
                    "keyword": null,
                    "description": null,
                    "content": "<p>Nếu bất kỳ loại hoa, giỏ hoa v&agrave; c&acirc;y n&agrave;o trong h&igrave;nh hết h&agrave;ng, ch&uacute;ng t&ocirc;i sẽ thay thế bằng những loại hoa c&oacute; c&ugrave;ng h&igrave;nh dạng, kiểu d&aacute;ng v&agrave; m&agrave;u sắc để đảm bảo hoa tươi v&agrave; chất lượng cao.<br />\r\nNếu bạn chọn mẫu hoa (như hoa hồng) v&agrave; những nguy&ecirc;n liệu n&agrave;y đ&atilde; hết h&agrave;ng, ch&uacute;ng t&ocirc;i sẽ li&ecirc;n hệ với bạn để thảo luận về phương &aacute;n thay thế ph&ugrave; hợp.</p>"
                },
                {
                    "product_id": "9d25ad86-84f5-4d72-894a-601a0bf75d8e",
                    "lang": "vi",
                    "name": "Kệ Hoa Chia Buồn 44",
                    "keyword": null,
                    "description": null,
                    "content": "<p>Nếu bất kỳ loại hoa, giỏ hoa v&agrave; c&acirc;y n&agrave;o trong h&igrave;nh hết h&agrave;ng, ch&uacute;ng t&ocirc;i sẽ thay thế bằng những loại hoa c&oacute; c&ugrave;ng h&igrave;nh dạng, kiểu d&aacute;ng v&agrave; m&agrave;u sắc để đảm bảo hoa tươi v&agrave; chất lượng cao.<br />\r\nNếu bạn chọn mẫu hoa (như hoa hồng) v&agrave; những nguy&ecirc;n liệu n&agrave;y đ&atilde; hết h&agrave;ng, ch&uacute;ng t&ocirc;i sẽ li&ecirc;n hệ với bạn để thảo luận về phương &aacute;n thay thế ph&ugrave; hợp.</p>"
                }
            ],
            "promotion_price": null,
            "attributes": []
        },
        {
            "id": "9d25adb6-6121-4086-9b9d-017a0315fba5",
            "sku": "khcb30",
            "upc": null,
            "ean": null,
            "jan": null,
            "isbn": null,
            "mpn": null,
            "image": "/data/product/hoa-dam-tang/ke-hoa-chia-buon-30.jpg",
            "brand_id": "",
            "supplier_id": "",
            "price": "1550000.00",
            "cost": "900000.00",
            "stock": 99,
            "sold": 1,
            "minimum": 0,
            "weight_class": "kg",
            "weight": "5.00",
            "length_class": "m",
            "length": "0.00",
            "width": "1.00",
            "height": "1.80",
            "kind": 0,
            "property": "physical",
            "tax_id": "0",
            "status": 1,
            "approve": 1,
            "sort": 0,
            "view": 11,
            "alias": "ke-hoa-chia-buon-30",
            "date_lastview": "2024-11-04 10:18:22",
            "date_available": "2024-09-30",
            "created_at": "2024-10-02T06:45:37.000000Z",
            "updated_at": "2024-11-04T03:18:22.000000Z",
            "images": [],
            "descriptions": [
                {
                    "product_id": "9d25adb6-6121-4086-9b9d-017a0315fba5",
                    "lang": "en",
                    "name": "Ke Hoa Chia Buon 30",
                    "keyword": null,
                    "description": null,
                    "content": "<p>Nếu bất kỳ loại hoa, giỏ hoa v&agrave; c&acirc;y n&agrave;o trong h&igrave;nh hết h&agrave;ng, ch&uacute;ng t&ocirc;i sẽ thay thế bằng những loại hoa c&oacute; c&ugrave;ng h&igrave;nh dạng, kiểu d&aacute;ng v&agrave; m&agrave;u sắc để đảm bảo hoa tươi v&agrave; chất lượng cao.<br />\r\nNếu bạn chọn mẫu hoa (như hoa hồng) v&agrave; những nguy&ecirc;n liệu n&agrave;y đ&atilde; hết h&agrave;ng, ch&uacute;ng t&ocirc;i sẽ li&ecirc;n hệ với bạn để thảo luận về phương &aacute;n thay thế ph&ugrave; hợp.</p>"
                },
                {
                    "product_id": "9d25adb6-6121-4086-9b9d-017a0315fba5",
                    "lang": "vi",
                    "name": "Kệ Hoa Chia Buồn 30",
                    "keyword": null,
                    "description": null,
                    "content": "<p>Nếu bất kỳ loại hoa, giỏ hoa v&agrave; c&acirc;y n&agrave;o trong h&igrave;nh hết h&agrave;ng, ch&uacute;ng t&ocirc;i sẽ thay thế bằng những loại hoa c&oacute; c&ugrave;ng h&igrave;nh dạng, kiểu d&aacute;ng v&agrave; m&agrave;u sắc để đảm bảo hoa tươi v&agrave; chất lượng cao.<br />\r\nNếu bạn chọn mẫu hoa (như hoa hồng) v&agrave; những nguy&ecirc;n liệu n&agrave;y đ&atilde; hết h&agrave;ng, ch&uacute;ng t&ocirc;i sẽ li&ecirc;n hệ với bạn để thảo luận về phương &aacute;n thay thế ph&ugrave; hợp.</p>"
                }
            ],
            "promotion_price": null,
            "attributes": []
        },
        {
            "id": "9d25adba-3813-4a7f-89d8-26deb8bf6767",
            "sku": "khcb29",
            "upc": null,
            "ean": null,
            "jan": null,
            "isbn": null,
            "mpn": null,
            "image": "/data/product/hoa-dam-tang/ke-hoa-chia-buon-29.jpg",
            "brand_id": "",
            "supplier_id": "",
            "price": "1950000.00",
            "cost": "900000.00",
            "stock": 99,
            "sold": 1,
            "minimum": 0,
            "weight_class": "kg",
            "weight": "5.00",
            "length_class": "m",
            "length": "0.00",
            "width": "1.00",
            "height": "1.80",
            "kind": 0,
            "property": "physical",
            "tax_id": "0",
            "status": 1,
            "approve": 1,
            "sort": 0,
            "view": 14,
            "alias": "ke-hoa-chia-buon-29",
            "date_lastview": "2025-01-03 10:38:41",
            "date_available": "2024-09-30",
            "created_at": "2024-10-02T06:45:40.000000Z",
            "updated_at": "2025-01-03T03:38:41.000000Z",
            "images": [],
            "descriptions": [
                {
                    "product_id": "9d25adba-3813-4a7f-89d8-26deb8bf6767",
                    "lang": "en",
                    "name": "Ke Hoa Chia Buon 29",
                    "keyword": null,
                    "description": null,
                    "content": "<p>Nếu bất kỳ loại hoa, giỏ hoa v&agrave; c&acirc;y n&agrave;o trong h&igrave;nh hết h&agrave;ng, ch&uacute;ng t&ocirc;i sẽ thay thế bằng những loại hoa c&oacute; c&ugrave;ng h&igrave;nh dạng, kiểu d&aacute;ng v&agrave; m&agrave;u sắc để đảm bảo hoa tươi v&agrave; chất lượng cao.<br />\r\nNếu bạn chọn mẫu hoa (như hoa hồng) v&agrave; những nguy&ecirc;n liệu n&agrave;y đ&atilde; hết h&agrave;ng, ch&uacute;ng t&ocirc;i sẽ li&ecirc;n hệ với bạn để thảo luận về phương &aacute;n thay thế ph&ugrave; hợp.</p>"
                },
                {
                    "product_id": "9d25adba-3813-4a7f-89d8-26deb8bf6767",
                    "lang": "vi",
                    "name": "Kệ Hoa Chia Buồn 29",
                    "keyword": null,
                    "description": null,
                    "content": "<p>Nếu bất kỳ loại hoa, giỏ hoa v&agrave; c&acirc;y n&agrave;o trong h&igrave;nh hết h&agrave;ng, ch&uacute;ng t&ocirc;i sẽ thay thế bằng những loại hoa c&oacute; c&ugrave;ng h&igrave;nh dạng, kiểu d&aacute;ng v&agrave; m&agrave;u sắc để đảm bảo hoa tươi v&agrave; chất lượng cao.<br />\r\nNếu bạn chọn mẫu hoa (như hoa hồng) v&agrave; những nguy&ecirc;n liệu n&agrave;y đ&atilde; hết h&agrave;ng, ch&uacute;ng t&ocirc;i sẽ li&ecirc;n hệ với bạn để thảo luận về phương &aacute;n thay thế ph&ugrave; hợp.</p>"
                }
            ],
            "promotion_price": null,
            "attributes": []
        }
    ],
    "first_page_url": "https://staging-shop.fado.vn/api/admin/products?username=admin&password=Fado%402024%24&page%5Bnumber%5D=1",
    "from": 21,
    "last_page": 43,
    "last_page_url": "https://staging-shop.fado.vn/api/admin/products?username=admin&password=Fado%402024%24&page%5Bnumber%5D=43",
    "links": [
        {
            "url": "https://staging-shop.fado.vn/api/admin/products?username=admin&password=Fado%402024%24&page%5Bnumber%5D=1",
            "label": "&laquo; Previous",
            "active": false
        },
        {
            "url": "https://staging-shop.fado.vn/api/admin/products?username=admin&password=Fado%402024%24&page%5Bnumber%5D=1",
            "label": "1",
            "active": false
        },
        {
            "url": "https://staging-shop.fado.vn/api/admin/products?username=admin&password=Fado%402024%24&page%5Bnumber%5D=2",
            "label": "2",
            "active": true
        },
        {
            "url": "https://staging-shop.fado.vn/api/admin/products?username=admin&password=Fado%402024%24&page%5Bnumber%5D=3",
            "label": "3",
            "active": false
        },
        {
            "url": "https://staging-shop.fado.vn/api/admin/products?username=admin&password=Fado%402024%24&page%5Bnumber%5D=4",
            "label": "4",
            "active": false
        },
        {
            "url": "https://staging-shop.fado.vn/api/admin/products?username=admin&password=Fado%402024%24&page%5Bnumber%5D=5",
            "label": "5",
            "active": false
        },
        {
            "url": "https://staging-shop.fado.vn/api/admin/products?username=admin&password=Fado%402024%24&page%5Bnumber%5D=6",
            "label": "6",
            "active": false
        },
        {
            "url": "https://staging-shop.fado.vn/api/admin/products?username=admin&password=Fado%402024%24&page%5Bnumber%5D=7",
            "label": "7",
            "active": false
        },
        {
            "url": "https://staging-shop.fado.vn/api/admin/products?username=admin&password=Fado%402024%24&page%5Bnumber%5D=8",
            "label": "8",
            "active": false
        },
        {
            "url": "https://staging-shop.fado.vn/api/admin/products?username=admin&password=Fado%402024%24&page%5Bnumber%5D=9",
            "label": "9",
            "active": false
        },
        {
            "url": "https://staging-shop.fado.vn/api/admin/products?username=admin&password=Fado%402024%24&page%5Bnumber%5D=10",
            "label": "10",
            "active": false
        },
        {
            "url": null,
            "label": "...",
            "active": false
        },
        {
            "url": "https://staging-shop.fado.vn/api/admin/products?username=admin&password=Fado%402024%24&page%5Bnumber%5D=42",
            "label": "42",
            "active": false
        },
        {
            "url": "https://staging-shop.fado.vn/api/admin/products?username=admin&password=Fado%402024%24&page%5Bnumber%5D=43",
            "label": "43",
            "active": false
        },
        {
            "url": "https://staging-shop.fado.vn/api/admin/products?username=admin&password=Fado%402024%24&page%5Bnumber%5D=3",
            "label": "Next &raquo;",
            "active": false
        }
    ],
    "next_page_url": "https://staging-shop.fado.vn/api/admin/products?username=admin&password=Fado%402024%24&page%5Bnumber%5D=3",
    "path": "https://staging-shop.fado.vn/api/admin/products",
    "per_page": 20,
    "prev_page_url": "https://staging-shop.fado.vn/api/admin/products?username=admin&password=Fado%402024%24&page%5Bnumber%5D=1",
    "to": 40,
    "total": 848
}